<svg width="25" height="25" viewBox="0 0 25 25" fill="none" xmlns="http://www.w3.org/2000/svg">
<g clip-path="url(#clip0)">
<path d="M9.81445 0.620801V9.61914H22.8516V0.620801C22.8516 0.27793 22.5736 0 22.2308 0H10.4353C10.0924 0 9.81445 0.27793 9.81445 0.620801ZM12.9341 2.23853H16.3653C16.7698 2.23853 17.0977 2.56646 17.0977 2.97095C17.0977 3.37544 16.7698 3.70337 16.3653 3.70337H12.9341C12.5296 3.70337 12.2017 3.37544 12.2017 2.97095C12.2017 2.56646 12.5295 2.23853 12.9341 2.23853ZM12.9341 5.90757H19.7319C20.1364 5.90757 20.4644 6.2355 20.4644 6.63999C20.4644 7.04448 20.1364 7.37241 19.7319 7.37241H12.9341C12.5296 7.37241 12.2017 7.04448 12.2017 6.63999C12.2017 6.2355 12.5295 5.90757 12.9341 5.90757Z" fill="#581C42"/>
<path d="M23.0469 11.084H9.61914C8.54048 11.084 7.66602 11.9584 7.66602 13.0371V23.0469C7.66602 24.1255 8.54048 25 9.61914 25H23.0469C24.1255 25 25 24.1255 25 23.0469V13.0371C25 11.9584 24.1255 11.084 23.0469 11.084ZM12.915 21.7041H11.9385C11.534 21.7041 11.2061 21.3762 11.2061 20.9717C11.2061 20.5672 11.534 20.2393 11.9385 20.2393H12.915C13.3195 20.2393 13.6475 20.5672 13.6475 20.9717C13.6475 21.3762 13.3195 21.7041 12.915 21.7041ZM12.915 18.7744H11.9385C11.534 18.7744 11.2061 18.4465 11.2061 18.042C11.2061 17.6375 11.534 17.3096 11.9385 17.3096H12.915C13.3195 17.3096 13.6475 17.6375 13.6475 18.042C13.6475 18.4465 13.3195 18.7744 12.915 18.7744ZM12.915 15.8447H11.9385C11.534 15.8447 11.2061 15.5168 11.2061 15.1123C11.2061 14.7078 11.534 14.3799 11.9385 14.3799H12.915C13.3195 14.3799 13.6475 14.7078 13.6475 15.1123C13.6475 15.5168 13.3195 15.8447 12.915 15.8447ZM16.8213 21.7041H15.8447C15.4402 21.7041 15.1123 21.3762 15.1123 20.9717C15.1123 20.5672 15.4402 20.2393 15.8447 20.2393H16.8213C17.2258 20.2393 17.5537 20.5672 17.5537 20.9717C17.5537 21.3762 17.2258 21.7041 16.8213 21.7041ZM16.8213 18.7744H15.8447C15.4402 18.7744 15.1123 18.4465 15.1123 18.042C15.1123 17.6375 15.4402 17.3096 15.8447 17.3096H16.8213C17.2258 17.3096 17.5537 17.6375 17.5537 18.042C17.5537 18.4465 17.2258 18.7744 16.8213 18.7744ZM16.8213 15.8447H15.8447C15.4402 15.8447 15.1123 15.5168 15.1123 15.1123C15.1123 14.7078 15.4402 14.3799 15.8447 14.3799H16.8213C17.2258 14.3799 17.5537 14.7078 17.5537 15.1123C17.5537 15.5168 17.2258 15.8447 16.8213 15.8447ZM20.7275 21.7041H19.751C19.3465 21.7041 19.0186 21.3762 19.0186 20.9717C19.0186 20.5672 19.3465 20.2393 19.751 20.2393H20.7275C21.132 20.2393 21.46 20.5672 21.46 20.9717C21.46 21.3762 21.132 21.7041 20.7275 21.7041ZM20.7275 18.7744H19.751C19.3465 18.7744 19.0186 18.4465 19.0186 18.042C19.0186 17.6375 19.3465 17.3096 19.751 17.3096H20.7275C21.132 17.3096 21.46 17.6375 21.46 18.042C21.46 18.4465 21.132 18.7744 20.7275 18.7744ZM20.7275 15.8447H19.751C19.3465 15.8447 19.0186 15.5168 19.0186 15.1123C19.0186 14.7078 19.3465 14.3799 19.751 14.3799H20.7275C21.132 14.3799 21.46 14.7078 21.46 15.1123C21.46 15.5168 21.132 15.8447 20.7275 15.8447Z" fill="#581C42"/>
<path d="M4.24805 11.084H1.95312C0.874463 11.084 0 11.9584 0 13.0371V23.0469C0 24.1255 0.874463 25 1.95312 25H4.24805C5.32671 25 6.20117 24.1255 6.20117 23.0469V13.0371C6.20117 11.9584 5.32671 11.084 4.24805 11.084Z" fill="#581C42"/>
</g>
<defs>
<clipPath id="clip0">
<rect width="25" height="25" fill="white"/>
</clipPath>
</defs>
</svg>
