<?xml version="1.0" encoding="utf-8"?>
<!-- Generator: Adobe Illustrator 24.2.1, SVG Export Plug-In . SVG Version: 6.00 Build 0)  -->
<svg version="1.1" xmlns="http://www.w3.org/2000/svg" xmlns:xlink="http://www.w3.org/1999/xlink" x="0px" y="0px"
	 viewBox="0 0 512 512" style="enable-background:new 0 0 512 512;" xml:space="preserve">
<style type="text/css">
	.st0{fill:#8A1253;}
	.st1{fill:none;stroke:#8A1253;stroke-width:6;stroke-linecap:round;stroke-linejoin:round;stroke-miterlimit:10;}
	.st2{fill:none;stroke:#8A1253;stroke-width:6;stroke-linecap:round;stroke-miterlimit:10;}
	.st3{fill:none;stroke:#8A1253;stroke-width:6;stroke-linecap:round;stroke-miterlimit:10;stroke-dasharray:8.7345,11.646;}
	.st4{fill:none;stroke:#8A1253;stroke-width:6;stroke-linecap:round;stroke-miterlimit:10;stroke-dasharray:9.0827,12.1103;}
	.st5{fill:none;stroke:#8A1253;stroke-width:6;stroke-linecap:round;stroke-miterlimit:10;stroke-dasharray:8.6884,11.5845;}
	.st6{fill:none;stroke:#8A1253;stroke-width:15;stroke-linecap:round;stroke-linejoin:round;stroke-miterlimit:10;}
	.st7{fill:none;stroke:#8A1253;stroke-width:11;stroke-linecap:round;stroke-linejoin:round;stroke-miterlimit:10;}
	.st8{fill:#FFFFFF;}
	.st9{fill:none;stroke:#8A1253;stroke-width:5;stroke-miterlimit:10;}
	.st10{fill:none;stroke:#8A1253;stroke-width:6;stroke-miterlimit:10;}
	.st11{fill:#8A1253;stroke:#8A1253;stroke-width:6;stroke-linecap:round;stroke-linejoin:round;stroke-miterlimit:10;}
	.st12{fill:none;stroke:#8A1253;stroke-width:7;stroke-linecap:round;stroke-linejoin:round;stroke-miterlimit:10;}
	.st13{fill:none;stroke:#8A1253;stroke-width:5;stroke-linecap:round;stroke-linejoin:round;stroke-miterlimit:10;}
</style>
<g id="Layer_1">
	<g>
		<g>
			<path class="st0" d="M311.5,101.1c-1-2.8-3.5-4.9-6.5-5.3l-29-3.9l-13.4-27.4c-1.4-2.8-4.2-4.5-7.3-4.5c-3.1,0-5.9,1.9-7.2,4.7
				l-12.6,27.8l-28.9,4.9c-4.4,0.7-7.3,4.9-6.6,9.2c0.3,1.7,1.1,3.2,2.3,4.4l21.5,21.2l-4.6,30.6c-0.7,4.4,2.4,8.4,6.7,9.1
				c1.8,0.3,3.6-0.1,5.2-1l25.6-14.6l26,13.8c3.9,2.1,8.7,0.6,10.8-3.3c0.8-1.6,1.1-3.4,0.8-5.2l-5.5-30.5l20.9-21.9
				C311.9,107.1,312.5,104,311.5,101.1z M274.6,123.1c-1.8,1.8-2.5,4.4-2.1,6.9l3.3,18.3l-15.4-8.2c-2.4-1.3-5.3-1.2-7.7,0.1
				l-15.1,8.6l2.7-18.4c0.4-2.5-0.5-5.1-2.3-6.9l-13.2-13.1l17.7-3c2.6-0.4,4.9-2.2,6-4.6l7.4-16.2l7.8,16c1.2,2.4,3.5,4.1,6.1,4.4
				l17.7,2.4L274.6,123.1z"/>
		</g>
	</g>
	<g>
		<g>
			<path class="st0" d="M443,351.7c24.1-19.3,28-54.4,8.8-78.6c-8.9-11.1-21.7-18.4-35.8-20.4V188h-16v64.6
				c-30.6,4.4-51.8,32.7-47.4,63.2c2,14.1,9.3,26.8,20.4,35.7c-15.4,2.8-29.7,10-41,20.8c-11.3-10.7-25.6-17.9-40.9-20.7
				c24.1-19.3,28-54.6,8.7-78.7c-19.3-24.1-54.6-28-78.7-8.7s-28,54.6-8.7,78.7c2.6,3.2,5.5,6.1,8.7,8.7
				c-15.4,2.8-29.6,10-40.9,20.7c-11.4-10.8-25.6-18-41-20.8c24.1-19.3,28-54.5,8.7-78.6c-8.9-11.1-21.7-18.4-35.7-20.4V124H96
				v128.6c-30.6,4.4-51.8,32.7-47.4,63.2c2,14.1,9.3,26.9,20.4,35.8c-32.7,7.4-53,25.5-53,49.5V500c0,4.4,3.6,8,8,8c0,0,0,0,0,0h464
				c4.4,0,8-3.6,8-8c0,0,0,0,0,0v-98.8C496,377.1,475.7,359.1,443,351.7z M64,308c0-22.1,17.9-40,40-40s40,17.9,40,40
				s-17.9,40-40,40C81.9,348,64,330.1,64,308z M168,401.2V492H32v-90.8c0-25.5,37.3-37.2,72-37.2c31.8,0,56.7,8.6,66.9,22.5
				C169,391.2,168,396.2,168,401.2z M216,308c0-22.1,17.9-40,40-40s40,17.9,40,40s-17.9,40-40,40C233.9,348,216,330.1,216,308z
				 M328,492H184v-90.8c0-25.5,37.3-37.2,72-37.2s72,11.6,72,37.2V492z M368,308c0-22.1,17.9-40,40-40s40,17.9,40,40s-17.9,40-40,40
				C385.9,348,368,330.1,368,308z M480,492H344v-90.8c0-5-1-10-2.9-14.7c10.1-13.9,35.1-22.5,66.9-22.5c34.7,0,72,11.6,72,37.2V492z
				"/>
		</g>
	</g>
	<g>
		<g>
			<path class="st0" d="M408,28C408,28,408,28,408,28H104c-4.4,0-8,3.6-8,8c0,0,0,0,0,0v40h16V44h288v96h16V36
				C416,31.6,412.4,28,408,28z"/>
		</g>
	</g>
	<g>
		<g>
			<rect x="328" y="60" class="st0" width="16" height="16"/>
		</g>
	</g>
	<g>
		<g>
			<rect x="328" y="92" class="st0" width="16" height="16"/>
		</g>
	</g>
	<g>
		<g>
			<rect x="328" y="124" class="st0" width="16" height="16"/>
		</g>
	</g>
	<g>
		<g>
			<rect x="328" y="156" class="st0" width="16" height="16"/>
		</g>
	</g>
	<g>
		<g>
			<rect x="168" y="60" class="st0" width="16" height="16"/>
		</g>
	</g>
	<g>
		<g>
			<rect x="168" y="92" class="st0" width="16" height="16"/>
		</g>
	</g>
	<g>
		<g>
			<rect x="168" y="124" class="st0" width="16" height="16"/>
		</g>
	</g>
	<g>
		<g>
			<rect x="168" y="156" class="st0" width="16" height="16"/>
		</g>
	</g>
	<g>
		<g>
			<rect x="328" y="188" class="st0" width="16" height="16"/>
		</g>
	</g>
	<g>
		<g>
			<rect x="360" y="60" class="st0" width="16" height="16"/>
		</g>
	</g>
	<g>
		<g>
			<rect x="360" y="92" class="st0" width="16" height="16"/>
		</g>
	</g>
	<g>
		<g>
			<rect x="360" y="124" class="st0" width="16" height="16"/>
		</g>
	</g>
	<g>
		<g>
			<rect x="360" y="156" class="st0" width="16" height="16"/>
		</g>
	</g>
	<g>
		<g>
			<rect x="360" y="188" class="st0" width="16" height="16"/>
		</g>
	</g>
	<g>
		<g>
			<rect x="296" y="188" class="st0" width="16" height="16"/>
		</g>
	</g>
	<g>
		<g>
			<rect x="264" y="188" class="st0" width="16" height="16"/>
		</g>
	</g>
	<g>
		<g>
			<rect x="232" y="188" class="st0" width="16" height="16"/>
		</g>
	</g>
	<g>
		<g>
			<rect x="200" y="188" class="st0" width="16" height="16"/>
		</g>
	</g>
	<g>
		<g>
			<rect x="168" y="188" class="st0" width="16" height="16"/>
		</g>
	</g>
	<g>
		<g>
			<rect x="136" y="60" class="st0" width="16" height="16"/>
		</g>
	</g>
	<g>
		<g>
			<rect x="136" y="92" class="st0" width="16" height="16"/>
		</g>
	</g>
	<g>
		<g>
			<rect x="136" y="124" class="st0" width="16" height="16"/>
		</g>
	</g>
	<g>
		<g>
			<rect x="136" y="156" class="st0" width="16" height="16"/>
		</g>
	</g>
	<g>
		<g>
			<rect x="136" y="188" class="st0" width="16" height="16"/>
		</g>
	</g>
	<g>
		<g>
			<rect x="328" y="220" class="st0" width="16" height="16"/>
		</g>
	</g>
	<g>
		<g>
			<rect x="360" y="220" class="st0" width="16" height="16"/>
		</g>
	</g>
	<g>
		<g>
			<rect x="296" y="220" class="st0" width="16" height="16"/>
		</g>
	</g>
	<g>
		<g>
			<rect x="264" y="220" class="st0" width="16" height="16"/>
		</g>
	</g>
	<g>
		<g>
			<rect x="232" y="220" class="st0" width="16" height="16"/>
		</g>
	</g>
	<g>
		<g>
			<rect x="200" y="220" class="st0" width="16" height="16"/>
		</g>
	</g>
	<g>
		<g>
			<rect x="168" y="220" class="st0" width="16" height="16"/>
		</g>
	</g>
	<g>
		<g>
			<rect x="136" y="220" class="st0" width="16" height="16"/>
		</g>
	</g>
	<g>
		<g>
			<path class="st0" d="M104,92c-13.2,0-24-10.8-24-24c0-4.4-3.6-8-8-8s-8,3.6-8,8c0,13.2-10.8,24-24,24c-4.4,0-8,3.6-8,8s3.6,8,8,8
				c13.2,0,24,10.8,24,24c0,4.4,3.6,8,8,8s8-3.6,8-8c0-13.2,10.8-24,24-24c4.4,0,8-3.6,8-8S108.4,92,104,92z M72,108.1
				c-2.3-3-5-5.7-8-8c3-2.3,5.7-5,8-8c2.3,3,5,5.7,8,8C77,102.3,74.3,105,72,108.1z"/>
		</g>
	</g>
	<g>
		<g>
			<path class="st0" d="M480,156c-13.2,0-24-10.8-24-24c0-4.4-3.6-8-8-8s-8,3.6-8,8c0,13.2-10.8,24-24,24c-4.4,0-8,3.6-8,8
				s3.6,8,8,8c13.2,0,24,10.8,24,24c0,4.4,3.6,8,8,8s8-3.6,8-8c0-13.2,10.8-24,24-24c4.4,0,8-3.6,8-8S484.4,156,480,156z M448,172.1
				c-2.3-3-5-5.7-8-8c3-2.3,5.7-5,8-8c2.3,3,5,5.7,8,8C453,166.3,450.3,169,448,172.1z"/>
		</g>
	</g>
</g>
<g id="Layer_2">
</g>
</svg>
