<?xml version="1.0" encoding="utf-8"?>
<!-- Generator: Adobe Illustrator 22.0.0, SVG Export Plug-In . SVG Version: 6.00 Build 0)  -->
<svg version="1.1" xmlns="http://www.w3.org/2000/svg" xmlns:xlink="http://www.w3.org/1999/xlink" x="0px" y="0px"
	 viewBox="0 0 512 512" style="enable-background:new 0 0 512 512;" xml:space="preserve">
<style type="text/css">
	.st0{fill:#8A1253;}
	.st1{fill:none;stroke:#8A1253;stroke-width:6;stroke-linecap:round;stroke-linejoin:round;stroke-miterlimit:10;}
	.st2{fill:none;stroke:#8A1253;stroke-width:6;stroke-linecap:round;stroke-miterlimit:10;}
	.st3{fill:none;stroke:#8A1253;stroke-width:6;stroke-linecap:round;stroke-miterlimit:10;stroke-dasharray:8.7345,11.646;}
	.st4{fill:none;stroke:#8A1253;stroke-width:6;stroke-linecap:round;stroke-miterlimit:10;stroke-dasharray:9.0827,12.1103;}
	.st5{fill:none;stroke:#8A1253;stroke-width:6;stroke-linecap:round;stroke-miterlimit:10;stroke-dasharray:8.6884,11.5845;}
	.st6{fill:none;stroke:#8A1253;stroke-width:15;stroke-linecap:round;stroke-linejoin:round;stroke-miterlimit:10;}
	.st7{fill:none;stroke:#8A1253;stroke-width:11;stroke-linecap:round;stroke-linejoin:round;stroke-miterlimit:10;}
</style>
<g id="Layer_1">
	<g>
		<g>
			<g>
				<circle class="st0" cx="370.6" cy="76.5" r="36.2"/>
			</g>
		</g>
		<g>
			<g>
				<path class="st0" d="M458.5,165.3c-0.1-22.7-18.6-41.1-41.3-41.1c-40.4,0-63.7,0-77.2,0c-5.6,0-11,1.3-16,3.9l-34.3,17.5
					l-8.4-51.1c-1.6-9.5-10.5-16-20-14.4c-9.5,1.6-16,10.5-14.4,20l12.2,74.8c0.9,5.5,4.4,10.2,9.4,12.8c5,2.5,10.9,2.5,15.8,0
					l39.8-20.4c0,0,0,270.7,0,291.6c0,11.6,9.4,20.9,20.9,20.9c11.6,0,20.9-9.4,20.9-20.9V291.4h9v167.4c0,11.6,9.4,20.9,20.9,20.9
					c11.6,0,20.9-9.4,20.9-20.9c0-6.6-0.4-198.3-0.4-204.9l-42.4-4.5c-17.5-1.9-30.2-17.6-28.4-35.1c0.9-8.8,5.4-16.3,11.7-21.5
					l-4-33.5c-0.5-3.9,0.8-7.8,3.4-10.8c2.6-2.9,6.4-4.6,10.3-4.6h39.3c3.8,0,7.4,1.6,10,4.3c0.1,0.1,0.2,0.2,0.3,0.3
					c2.6,3,3.9,6.7,3.3,11.3c2,1.1,3.4,3.2,3.4,5.6c0,5.8,0-0.2,0,39.1l0.2-0.3l0,0.8c-11.8-1.3-7.7-0.8-22.5-2.4l5.3-45h-39.3
					l5.1,43.4c-6.8,2.1-11.4,8.1-12.1,14.8c-1,9.6,5.9,18.2,15.5,19.2l63.7,6.8c4.9,0.5,9.9-1.1,13.6-4.4c3.7-3.3,5.8-8.1,5.8-13
					C458.8,218.4,458.6,171.2,458.5,165.3z"/>
			</g>
		</g>
		<g>
			<g>
				<path class="st0" d="M209.3,165.7c-0.1-23-18.9-41.8-42-41.8c-79.2,0-35,0.3-92.3,0.3c-22.7,0-41.2,18.4-41.3,41.1
					c0,5.9-0.3,53.1-0.3,59.1c0,5,2.1,9.7,5.8,13c3.7,3.3,8.6,4.9,13.6,4.4l63.7-6.8c9.6-1,16.5-9.6,15.5-19.2
					c-0.7-6.8-5.4-12.7-12.1-14.8l5.1-43.4H85.8l5.3,45c-13.6,1.4-9.2,1-22.5,2.4c0,0,0.2-33.6,0.2-39.6c0-2.4,1.4-4.6,3.4-5.6
					c-1.1-9.5,5.9-16,13.6-16H125c8.2,0,14.6,7.2,13.7,15.4l-4,33.5c6.4,5.1,10.8,12.7,11.7,21.5c1.9,17.5-10.8,33.3-28.4,35.1
					l-42.4,4.5c0,6.6-0.4,198.3-0.4,204.9c0,11.6,9.4,20.9,20.9,20.9s20.9-9.4,20.9-20.9V291.4h9v167.4c0,11.6,9.4,20.9,20.9,20.9
					c11.6,0,20.9-9.4,20.9-20.9c0-19,0-249.5,0-292.9c0-1.7,1.4-3.1,3.1-3.1c1.7,0,3.1,1.4,3.1,3.1c0.4,75.8,0.2,45.8,0.9,131.9
					c0.1,9.6,7.9,17.3,17.4,17.3c0.1,0,0.1,0,0.2,0c9.6-0.1,17.4-8,17.3-17.6C209.5,211.4,209.7,241.4,209.3,165.7z"/>
			</g>
		</g>
		<g>
			<g>
				<circle class="st0" cx="121.8" cy="76.5" r="36.2"/>
			</g>
		</g>
	</g>
</g>
<g id="Layer_2">
</g>
</svg>
