<?xml version="1.0" encoding="utf-8"?>
<!-- Generator: Adobe Illustrator 22.0.0, SVG Export Plug-In . SVG Version: 6.00 Build 0)  -->
<svg version="1.1" xmlns="http://www.w3.org/2000/svg" xmlns:xlink="http://www.w3.org/1999/xlink" x="0px" y="0px"
	 viewBox="0 0 512 512" style="enable-background:new 0 0 512 512;" xml:space="preserve">
<style type="text/css">
	.st0{fill:#8A1253;}
	.st1{fill:none;stroke:#8A1253;stroke-width:6;stroke-linecap:round;stroke-linejoin:round;stroke-miterlimit:10;}
	.st2{fill:none;stroke:#8A1253;stroke-width:6;stroke-linecap:round;stroke-miterlimit:10;}
	.st3{fill:none;stroke:#8A1253;stroke-width:6;stroke-linecap:round;stroke-miterlimit:10;stroke-dasharray:8.7345,11.646;}
	.st4{fill:none;stroke:#8A1253;stroke-width:6;stroke-linecap:round;stroke-miterlimit:10;stroke-dasharray:9.0827,12.1103;}
	.st5{fill:none;stroke:#8A1253;stroke-width:6;stroke-linecap:round;stroke-miterlimit:10;stroke-dasharray:8.6884,11.5845;}
	.st6{fill:none;stroke:#8A1253;stroke-width:15;stroke-linecap:round;stroke-linejoin:round;stroke-miterlimit:10;}
	.st7{fill:none;stroke:#8A1253;stroke-width:11;stroke-linecap:round;stroke-linejoin:round;stroke-miterlimit:10;}
</style>
<g id="Layer_1">
	<path class="st0" d="M486,19H26c-3.9,0-7,3.1-7,7c0,0,0,0,0,0v389.2c0,3.9,3.1,7,7,7h124.4V486c0,3.9,3.1,7,7,7c0,0,0,0,0,0h197.3
		c3.9,0,7-3.1,7-7c0,0,0,0,0,0v-63.8H486c3.9,0,7-3.1,7-7V26C493,22.1,489.9,19,486,19C486,19,486,19,486,19z M33,33h446v42.6H33V33
		z M227.6,479v-72h56.8v72H227.6z M347.6,479h-49.2v-79c0-3.9-3.1-7-7-7h-70.8c-3.9,0-7,3.1-7,7c0,0,0,0,0,0v79h-49.2V342.3
		c0-3.9-3.1-7-7-7c0,0,0,0,0,0h-8.5L256,251.9l107.1,83.4h-8.5c-3.9,0-7,3.1-7,7c0,0,0,0,0,0L347.6,479z M361.6,408.2v-58.9h21.9
		c3.9,0,7-3.1,7-7c0-2.2-1-4.2-2.7-5.5l-127.5-99.3c-2.5-2-6.1-2-8.6,0l-127.5,99.3c-3,2.4-3.6,6.8-1.2,9.8c1.3,1.7,3.4,2.7,5.5,2.7
		h21.9v58.9H33V89.6h446v318.7H361.6z"/>
	<path class="st0" d="M331.8,42.2c-6.7,0-12.1,5.4-12.1,12.1c0,6.7,5.4,12.1,12.1,12.1c6.7,0,12.1-5.4,12.1-12.1
		S338.5,42.2,331.8,42.2L331.8,42.2z"/>
	<path class="st0" d="M379.2,42.2c-6.7,0-12.1,5.4-12.1,12.1c0,6.7,5.4,12.1,12.1,12.1c6.7,0,12.1-5.4,12.1-12.1c0,0,0,0,0,0
		C391.3,47.6,385.8,42.2,379.2,42.2z"/>
	<path class="st0" d="M426.5,42.2c-6.7,0-12.1,5.4-12.1,12.1c0,6.7,5.4,12.1,12.1,12.1c6.7,0,12.1-5.4,12.1-12.1c0,0,0,0,0,0
		C438.6,47.6,433.2,42.2,426.5,42.2C426.5,42.2,426.5,42.2,426.5,42.2z"/>
	<path class="st0" d="M383.5,135.3h-255c-3.9,0-7,3.1-7,7c0,0,0,0,0,0v48c0,3.9,3.1,7,7,7c0,0,0,0,0,0h255c3.9,0,7-3.1,7-7
		c0,0,0,0,0,0v-48C390.5,138.4,387.4,135.3,383.5,135.3C383.5,135.3,383.5,135.3,383.5,135.3z M376.5,183.3h-241v-34h241V183.3z"/>
</g>
<g id="Layer_2">
</g>
</svg>
