<?xml version="1.0" encoding="utf-8"?>
<!-- Generator: Adobe Illustrator 24.2.1, SVG Export Plug-In . SVG Version: 6.00 Build 0)  -->
<svg version="1.1" xmlns="http://www.w3.org/2000/svg" xmlns:xlink="http://www.w3.org/1999/xlink" x="0px" y="0px"
	 viewBox="0 0 512 512" style="enable-background:new 0 0 512 512;" xml:space="preserve">
<style type="text/css">
	.st0{fill:#8A1253;}
	.st1{fill:none;stroke:#8A1253;stroke-width:6;stroke-linecap:round;stroke-linejoin:round;stroke-miterlimit:10;}
	.st2{fill:none;stroke:#8A1253;stroke-width:6;stroke-linecap:round;stroke-miterlimit:10;}
	.st3{fill:none;stroke:#8A1253;stroke-width:6;stroke-linecap:round;stroke-miterlimit:10;stroke-dasharray:8.7345,11.646;}
	.st4{fill:none;stroke:#8A1253;stroke-width:6;stroke-linecap:round;stroke-miterlimit:10;stroke-dasharray:9.0827,12.1103;}
	.st5{fill:none;stroke:#8A1253;stroke-width:6;stroke-linecap:round;stroke-miterlimit:10;stroke-dasharray:8.6884,11.5845;}
	.st6{fill:none;stroke:#8A1253;stroke-width:15;stroke-linecap:round;stroke-linejoin:round;stroke-miterlimit:10;}
	.st7{fill:none;stroke:#8A1253;stroke-width:11;stroke-linecap:round;stroke-linejoin:round;stroke-miterlimit:10;}
	.st8{fill:#FFFFFF;}
	.st9{fill:none;stroke:#8A1253;stroke-width:5;stroke-miterlimit:10;}
	.st10{fill:none;stroke:#8A1253;stroke-width:6;stroke-miterlimit:10;}
	.st11{fill:#8A1253;stroke:#8A1253;stroke-width:6;stroke-linecap:round;stroke-linejoin:round;stroke-miterlimit:10;}
	.st12{fill:none;stroke:#8A1253;stroke-width:7;stroke-linecap:round;stroke-linejoin:round;stroke-miterlimit:10;}
	.st13{fill:none;stroke:#8A1253;stroke-width:5;stroke-linecap:round;stroke-linejoin:round;stroke-miterlimit:10;}
</style>
<g id="Layer_1">
	<g>
		<path class="st0" d="M75.2,77.2l14.6,19.5h6.5V66.5h-6.5v19.5L75.2,66.5h-6.5v30.2h6.5V77.2z"/>
		<path class="st0" d="M125.8,90.9h-16.8v-6.6h15.2v-5.9h-15.2v-6h16.8v-5.9h-23.3v30.2h23.3V90.9z"/>
		<path class="st0" d="M144.4,96.8l7.2-20.8l7.1,20.8h6.5l9.2-30.2h-7l-5.6,20.3L155,66.5h-7l-6.7,20.3l-5.6-20.3h-7l9.2,30.2H144.4
			z"/>
		<path class="st0" d="M189.9,91.8c-3.7,0-7.2-1.5-9.9-4l-3.7,4.4c3.7,3.3,8.5,5.1,13.4,5c7.4,0,11.8-3.8,11.8-9.6
			c0-5.6-4.3-7.5-10.8-9c-4.7-1.1-6.5-1.8-6.5-4c0-1.8,1.7-3.3,4.4-3.3c3.2,0.1,6.2,1.3,8.6,3.3l3.4-4.7c-3.3-2.8-7.5-4.3-11.8-4.2
			c-6.6,0-11.2,3.8-11.2,9.4c0,5.9,4.5,7.7,10.9,9.1c4.6,1.1,6.4,1.7,6.4,3.9C194.8,90.3,193.1,91.8,189.9,91.8z"/>
		<path class="st0" d="M227.4,90.9h-15.1V66.5h-6.5v30.2h21.6V90.9z"/>
		<path class="st0" d="M254.8,90.9h-16.8v-6.6h15.2v-5.9h-15.2v-6h16.8v-5.9h-23.3v30.2h23.3V90.9z"/>
		<path class="st0" d="M267.6,96.8h6.5V72.4h9.4v-5.9h-25.3v5.9h9.4V96.8z"/>
		<path class="st0" d="M295.7,96.8h6.5V72.4h9.4v-5.9h-25.3v5.9h9.4V96.8z"/>
		<path class="st0" d="M339.3,90.9h-16.8v-6.6h15.2v-5.9h-15.2v-6h16.8v-5.9H316v30.2h23.3V90.9z"/>
		<path class="st0" d="M350.7,87h4.8l6.9,9.8h7.4l-7.4-10.6c4.1-1.3,6.9-5.1,6.9-9.5c-0.1-5.8-4.9-10.4-10.7-10.3
			c-0.2,0-0.5,0-0.7,0h-13.6v30.2h6.5L350.7,87z M350.7,72.5h6.4c3.2,0,5.4,1.7,5.4,4.3s-2.2,4.3-5.4,4.3h-6.4V72.5z"/>
		<path class="st0" d="M484.6,62.3h-63.8V26c0-3.9-3.1-7-7-7H24.6c-3.9,0-7,3.1-7,7v412c0,30.4,24.6,55,55,55h378.7
			c0.5,0,1-0.1,1.5-0.2c21.9-1.9,38.8-20.2,38.8-42.2V69.3C491.6,65.5,488.5,62.3,484.6,62.3C484.6,62.3,484.6,62.3,484.6,62.3
			L484.6,62.3z M31.6,438V33h375.2v417.6c0,10.5,3.9,20.6,11,28.4H72.6C50,479,31.7,460.6,31.6,438z M477.6,450.6
			c0.5,15.7-11.8,28.8-27.5,29.3s-28.8-11.8-29.3-27.5c0-0.6,0-1.2,0-1.8V76.3h56.8V450.6z"/>
		<path class="st0" d="M60.6,232.3H226c3.9,0,7-3.1,7-7c0,0,0,0,0,0V132c0-3.9-3.1-7-7-7H60.6c-3.9,0-7,3.1-7,7v93.3
			C53.6,229.2,56.8,232.3,60.6,232.3C60.6,232.3,60.6,232.3,60.6,232.3z M67.6,139H219v79.3H67.6V139z"/>
		<path class="st0" d="M377.9,143h-102c-3.9,0-7,3.1-7,7s3.1,7,7,7h102c3.9,0,7-3.1,7-7S381.7,143,377.9,143L377.9,143z"/>
		<path class="st0" d="M377.9,178.9h-102c-3.9,0-7,3.1-7,7s3.1,7,7,7h102c3.9,0,7-3.1,7-7S381.7,178.9,377.9,178.9L377.9,178.9z"/>
		<path class="st0" d="M377.9,214.8h-102c-3.9,0-7,3.1-7,7s3.1,7,7,7h102c3.9,0,7-3.1,7-7S381.7,214.8,377.9,214.8L377.9,214.8z"/>
		<path class="st0" d="M377.9,250.6H60.6c-3.9,0-7,3.1-7,7c0,3.9,3.1,7,7,7h317.2c3.9,0,7-3.1,7-7S381.7,250.6,377.9,250.6
			L377.9,250.6L377.9,250.6z"/>
		<path class="st0" d="M377.9,286.5H60.6c-3.9,0-7,3.1-7,7s3.1,7,7,7h317.2c3.9,0,7-3.1,7-7S381.7,286.5,377.9,286.5L377.9,286.5z"
			/>
		<path class="st0" d="M377.9,322.4H60.6c-3.9,0-7,3.1-7,7s3.1,7,7,7h317.2c3.9,0,7-3.1,7-7S381.7,322.4,377.9,322.4L377.9,322.4z"
			/>
		<path class="st0" d="M377.9,358.3H60.6c-3.9,0-7,3.1-7,7s3.1,7,7,7h317.2c3.9,0,7-3.1,7-7S381.7,358.3,377.9,358.3L377.9,358.3z"
			/>
		<path class="st0" d="M377.9,394.1H60.6c-3.9,0-7,3.1-7,7s3.1,7,7,7h317.2c3.9,0,7-3.1,7-7S381.7,394.1,377.9,394.1L377.9,394.1z"
			/>
		<path class="st0" d="M377.9,430H60.6c-3.9,0-7,3.1-7,7s3.1,7,7,7h317.2c3.9,0,7-3.1,7-7S381.7,430,377.9,430L377.9,430z"/>
	</g>
</g>
<g id="Layer_2">
</g>
</svg>
