<?xml version="1.0" encoding="utf-8"?>
<!-- Generator: Adobe Illustrator 24.2.1, SVG Export Plug-In . SVG Version: 6.00 Build 0)  -->
<svg version="1.1" xmlns="http://www.w3.org/2000/svg" xmlns:xlink="http://www.w3.org/1999/xlink" x="0px" y="0px"
	 viewBox="0 0 512 512" style="enable-background:new 0 0 512 512;" xml:space="preserve">
<style type="text/css">
	.st0{fill:#8A1253;}
	.st1{fill:none;stroke:#8A1253;stroke-width:6;stroke-linecap:round;stroke-linejoin:round;stroke-miterlimit:10;}
	.st2{fill:none;stroke:#8A1253;stroke-width:6;stroke-linecap:round;stroke-miterlimit:10;}
	.st3{fill:none;stroke:#8A1253;stroke-width:6;stroke-linecap:round;stroke-miterlimit:10;stroke-dasharray:8.7345,11.646;}
	.st4{fill:none;stroke:#8A1253;stroke-width:6;stroke-linecap:round;stroke-miterlimit:10;stroke-dasharray:9.0827,12.1103;}
	.st5{fill:none;stroke:#8A1253;stroke-width:6;stroke-linecap:round;stroke-miterlimit:10;stroke-dasharray:8.6884,11.5845;}
	.st6{fill:none;stroke:#8A1253;stroke-width:15;stroke-linecap:round;stroke-linejoin:round;stroke-miterlimit:10;}
	.st7{fill:none;stroke:#8A1253;stroke-width:11;stroke-linecap:round;stroke-linejoin:round;stroke-miterlimit:10;}
	.st8{fill:#FFFFFF;}
	.st9{fill:none;stroke:#8A1253;stroke-width:5;stroke-miterlimit:10;}
	.st10{fill:none;stroke:#8A1253;stroke-width:6;stroke-miterlimit:10;}
	.st11{fill:#8A1253;stroke:#8A1253;stroke-width:6;stroke-linecap:round;stroke-linejoin:round;stroke-miterlimit:10;}
	.st12{fill:none;stroke:#8A1253;stroke-width:7;stroke-linecap:round;stroke-linejoin:round;stroke-miterlimit:10;}
	.st13{fill:none;stroke:#8A1253;stroke-width:5;stroke-linecap:round;stroke-linejoin:round;stroke-miterlimit:10;}
</style>
<g id="Layer_1">
	<g>
		<path class="st0" d="M23.8,79.3l31.5,53.9c1.1,1.8,2.8,3.1,4.9,3.6l29.4,7.2l100.7,98.5l11.1-10.9L99.1,131.6c-1-1-2.3-1.7-3.7-2
			l-28.2-6.9L40.5,76.8l23-22.5l47,26.2l7.1,27.6c0.3,1.4,1.1,2.6,2.1,3.6l102.3,100.1l11.1-10.9l-100.7-98.5l-7.3-28.7
			c-0.5-2-1.9-3.8-3.7-4.8L66.1,38.1c-3.1-1.7-6.9-1.2-9.4,1.2L25.2,70.1C22.6,72.5,22.1,76.3,23.8,79.3z"/>
		<path class="st0" d="M351,188.7L177.9,358.1l-11.1-10.9l173.2-169.4L351,188.7z"/>
		<path class="st0" d="M147.6,364.1c-1.4-2.3-4-3.7-6.7-3.7H93.6c-2.8,0-5.3,1.4-6.7,3.7l-23.6,38.5c-1.5,2.4-1.5,5.5,0,7.9
			L86.9,449c1.4,2.3,4,3.7,6.7,3.7h47.2c2.8,0,5.3-1.4,6.7-3.7l23.6-38.5c1.5-2.4,1.5-5.5,0-7.9L147.6,364.1z M136.4,437.3H98.1
			l-18.9-30.8l18.9-30.8h38.3l18.9,30.8L136.4,437.3z"/>
		<path class="st0" d="M400.6,221.8c52,0.2,94.3-40.9,94.4-91.8c0-7.7-0.9-15.4-2.9-23c-1-4.1-5.3-6.6-9.5-5.6c-1.4,0.3-2.6,1-3.7,2
			l-49,47.9l-38.9-12.7l-13-38l49-47.9c3.1-3,3.1-7.9,0-10.9c-1-1-2.3-1.7-3.7-2C373,27.3,321.8,57.2,309,106.5
			c-1.9,7.5-2.9,15.2-2.9,22.9c0,6.1,0.7,12.1,1.9,18L135.7,316c-6.1-1.2-12.2-1.8-18.4-1.9c-52.2,0-94.5,41.4-94.5,92.4
			c0,51,42.3,92.4,94.5,92.4c52.2,0,94.4-41.4,94.4-92.4c0-6.1-0.7-12.1-1.9-18l41.3-40.4l18,17.7c3.1,3,8.1,3,11.1,0l3.9-3.9
			c3.5-3.4,9-3.4,12.5,0c3.4,3.4,3.5,8.8,0,12.2c0,0,0,0,0,0l-3.9,3.8c-3.1,3-3.1,7.9,0,10.9l93.9,91.8
			c24.7,24.4,64.9,24.6,89.8,0.4c24.9-24.2,25.1-63.5,0.4-87.9c-0.1-0.1-0.3-0.3-0.4-0.4L382.5,301c-3.1-3-8.1-3-11.1,0l-3.9,3.8
			c-3.5,3.4-9,3.4-12.5,0c-3.4-3.4-3.5-8.8,0-12.2c0,0,0,0,0,0l3.9-3.9c3.1-3,3.1-7.9,0-10.9l-18-17.7l41.3-40.4
			C388.2,221.1,394.4,221.7,400.6,221.8z M431.5,483.5c-5.7,0-11.4-1-16.7-3l61.5-60.1c9.3,24.1-3.2,51.1-27.9,60.1
			C443,482.5,437.3,483.5,431.5,483.5z M342.3,283.4c-8.7,10.2-7.3,25.3,3,33.8c9.1,7.5,22.5,7.5,31.6,0l88.3,86.5
			c1,0.9,1.9,1.9,2.7,2.9l-67.3,65.8c-1-0.8-2-1.7-3-2.7l-88.4-86.5c8.7-10.2,7.3-25.3-3-33.8c-9.1-7.5-22.5-7.5-31.6,0l-12.6-12.3
			l67.6-66.1L342.3,283.4z M374.1,206L195.6,380.6c-2,1.9-2.7,4.7-2.1,7.3c10.8,41.5-14.8,83.7-57.2,94.2
			c-42.4,10.6-85.5-14.5-96.3-56c-10.8-41.5,14.8-83.7,57.2-94.2c12.8-3.2,26.3-3.2,39.1,0c2.7,0.6,5.5-0.1,7.5-2l178.5-174.6
			c2-1.9,2.7-4.7,2.1-7.3c-10.7-41,14.6-82.7,56.5-93.2c7.9-2,16.1-2.7,24.3-2.2l-41.5,40.6c-2.1,2.1-2.8,5.1-1.9,7.9l15.7,46.2
			c0.8,2.3,2.6,4.1,5,4.9l47.2,15.4c2.8,0.9,5.9,0.2,8-1.9l41.5-40.6c0.1,1.5,0.1,2.9,0.1,4.4c0.2,42.3-34.7,76.8-77.9,77
			c-6.7,0-13.3-0.8-19.8-2.4C378.9,203.3,376,204.1,374.1,206L374.1,206L374.1,206z"/>
		<path class="st0" d="M429.8,424.2l-11.1,10.9l-78.7-77l11.1-10.9L429.8,424.2z"/>
	</g>
</g>
<g id="Layer_2">
</g>
</svg>
