<?xml version="1.0" encoding="utf-8"?>
<!-- Generator: Adobe Illustrator 24.2.1, SVG Export Plug-In . SVG Version: 6.00 Build 0)  -->
<svg version="1.1" xmlns="http://www.w3.org/2000/svg" xmlns:xlink="http://www.w3.org/1999/xlink" x="0px" y="0px"
	 viewBox="0 0 512 512" style="enable-background:new 0 0 512 512;" xml:space="preserve">
<style type="text/css">
	.st0{fill:#8A1253;}
	.st1{fill:none;stroke:#8A1253;stroke-width:6;stroke-linecap:round;stroke-linejoin:round;stroke-miterlimit:10;}
	.st2{fill:none;stroke:#8A1253;stroke-width:6;stroke-linecap:round;stroke-miterlimit:10;}
	.st3{fill:none;stroke:#8A1253;stroke-width:6;stroke-linecap:round;stroke-miterlimit:10;stroke-dasharray:8.7345,11.646;}
	.st4{fill:none;stroke:#8A1253;stroke-width:6;stroke-linecap:round;stroke-miterlimit:10;stroke-dasharray:9.0827,12.1103;}
	.st5{fill:none;stroke:#8A1253;stroke-width:6;stroke-linecap:round;stroke-miterlimit:10;stroke-dasharray:8.6884,11.5845;}
	.st6{fill:none;stroke:#8A1253;stroke-width:15;stroke-linecap:round;stroke-linejoin:round;stroke-miterlimit:10;}
	.st7{fill:none;stroke:#8A1253;stroke-width:11;stroke-linecap:round;stroke-linejoin:round;stroke-miterlimit:10;}
	.st8{fill:#FFFFFF;}
	.st9{fill:none;stroke:#8A1253;stroke-width:5;stroke-miterlimit:10;}
	.st10{fill:none;stroke:#8A1253;stroke-width:6;stroke-miterlimit:10;}
	.st11{fill:#8A1253;stroke:#8A1253;stroke-width:6;stroke-linecap:round;stroke-linejoin:round;stroke-miterlimit:10;}
	.st12{fill:none;stroke:#8A1253;stroke-width:7;stroke-linecap:round;stroke-linejoin:round;stroke-miterlimit:10;}
	.st13{fill:none;stroke:#8A1253;stroke-width:5;stroke-linecap:round;stroke-linejoin:round;stroke-miterlimit:10;}
</style>
<g id="Layer_1">
	<g>
		<g>
			<path class="st0" d="M478,364h-40V52c0-17.7-14.3-32-32-32H86c-17.7,0-32,14.3-32,32v320H14c-4.4,0-8,3.6-8,8v64c0,4.4,3.6,8,8,8
				h40v16c0,17.7,14.3,32,32,32h368c17.7,0,32-14.3,32-32v-96C486,367.6,482.4,364,478,364z M46,436H22v-48h24V436z M70,52
				c0-8.8,7.2-16,16-16h320c8.8,0,16,7.2,16,16v32H70V52z M62,436v-48h16v48H62z M86,484c-8.8,0-16-7.2-16-16v-16h256
				c1.2,0,2.5-0.3,3.5-0.9v0.1l64-32c4-2,5.6-6.8,3.6-10.7c-0.8-1.6-2-2.8-3.6-3.6l-64-32v0.1c-1.1-0.6-2.3-0.9-3.5-0.9H70V100h352
				v368c0,5.6,1.6,11.2,4.4,16H86z M318,420v16H94v-16H318z M94,404v-16h224v16H94z M334,431.1V393l38.1,19.1L334,431.1z M470,468
				c0,8.8-7.2,16-16,16s-16-7.2-16-16v-88h32V468z"/>
		</g>
	</g>
	<g>
		<g>
			<path class="st0" d="M198,124h-96c-4.4,0-8,3.6-8,8v96c0,4.4,3.6,8,8,8h96c4.4,0,8-3.6,8-8v-96C206,127.6,202.4,124,198,124z
				 M190,220h-80v-80h80V220z"/>
		</g>
	</g>
	<g>
		<g>
			<rect x="230" y="156" class="st0" width="168" height="16"/>
		</g>
	</g>
	<g>
		<g>
			<rect x="230" y="188" class="st0" width="168" height="16"/>
		</g>
	</g>
	<g>
		<g>
			<rect x="230" y="220" class="st0" width="136" height="16"/>
		</g>
	</g>
	<g>
		<g>
			<rect x="294" y="124" class="st0" width="104" height="16"/>
		</g>
	</g>
	<g>
		<g>
			<path class="st0" d="M390,260H102c-4.4,0-8,3.6-8,8v64c0,4.4,3.6,8,8,8h288c4.4,0,8-3.6,8-8v-64C398,263.6,394.4,260,390,260z
				 M382,324H110v-48h272V324z"/>
		</g>
	</g>
	<g>
		<g>
			<rect x="262" y="124" class="st0" width="16" height="16"/>
		</g>
	</g>
	<g>
		<g>
			<rect x="86" y="52" class="st0" width="16" height="16"/>
		</g>
	</g>
	<g>
		<g>
			<rect x="118" y="52" class="st0" width="16" height="16"/>
		</g>
	</g>
	<g>
		<g>
			<rect x="150" y="52" class="st0" width="16" height="16"/>
		</g>
	</g>
</g>
<g id="Layer_2">
</g>
</svg>
