<svg width="25" height="46" viewBox="0 0 25 46" fill="none" xmlns="http://www.w3.org/2000/svg">
<path d="M20.2404 0H4.84216C2.22431 0 0 2.13453 0 4.75165V40.8338C0 43.4509 2.17725 45.58 4.79509 45.58L20.2187 45.5633C22.8361 45.5633 24.9776 43.4339 24.9776 40.8164L25 4.74911C24.9996 2.12258 22.8687 0 20.2404 0ZM10.3168 2.84882H14.7842C15.1767 2.84882 15.4963 3.1674 15.4963 3.56093C15.4963 3.95446 15.1767 4.27304 14.7842 4.27304H10.3168C9.92325 4.27304 9.60466 3.95446 9.60466 3.56093C9.60466 3.1674 9.92325 2.84882 10.3168 2.84882ZM7.63232 3.07545C7.89624 2.81189 8.37666 2.80827 8.64022 3.07545C8.77236 3.20723 8.85055 3.39222 8.85055 3.5812C8.85055 3.76656 8.77236 3.9512 8.64022 4.08334C8.5088 4.21548 8.32308 4.29332 8.13808 4.29332C7.94946 4.29332 7.76808 4.21548 7.63232 4.08334C7.50091 3.95156 7.42597 3.76656 7.42597 3.5812C7.4256 3.39222 7.50091 3.20723 7.63232 3.07545ZM12.4068 44.1684C11.2316 44.1684 10.2759 43.2119 10.2759 42.0371C10.2759 40.862 11.2316 39.9059 12.4068 39.9059C13.5819 39.9059 14.5377 40.862 14.5377 42.0371C14.5377 43.2119 13.5816 44.1684 12.4068 44.1684ZM22.7894 38.4574H2.49258V6.76598H22.7894V38.4574Z" fill="#581C42"/>
</svg>
