<svg width="25" height="28" viewBox="0 0 25 28" fill="none" xmlns="http://www.w3.org/2000/svg">
<path d="M24.1479 4.54541C24.1479 6.58516 22.4946 8.23873 20.4548 8.23873C18.4151 8.23873 16.7617 6.58516 16.7617 4.54541C16.7617 2.50586 18.4151 0.852295 20.4548 0.852295C22.4946 0.852295 24.1479 2.50586 24.1479 4.54541Z" fill="#581C42"/>
<path d="M20.4555 9.09098C17.9487 9.09098 15.9102 7.05227 15.9102 4.54539C15.9102 2.03871 17.9487 0 20.4555 0C22.9624 0 25.0009 2.03871 25.0009 4.54539C25.0009 7.05227 22.9624 9.09098 20.4555 9.09098ZM20.4555 1.70455C18.8885 1.70455 17.6147 2.97963 17.6147 4.54539C17.6147 6.11135 18.8885 7.38643 20.4555 7.38643C22.0226 7.38643 23.2964 6.11135 23.2964 4.54539C23.2964 2.97963 22.0226 1.70455 20.4555 1.70455Z" fill="#581C42"/>
<path d="M24.1479 22.7274C24.1479 24.7669 22.4946 26.4205 20.4548 26.4205C18.4151 26.4205 16.7617 24.7669 16.7617 22.7274C16.7617 20.6876 18.4151 19.0341 20.4548 19.0341C22.4946 19.0341 24.1479 20.6876 24.1479 22.7274Z" fill="#581C42"/>
<path d="M20.4555 27.2727C17.9487 27.2727 15.9102 25.234 15.9102 22.7274C15.9102 20.2205 17.9487 18.1818 20.4555 18.1818C22.9624 18.1818 25.0009 20.2205 25.0009 22.7274C25.0009 25.234 22.9624 27.2727 20.4555 27.2727ZM20.4555 19.8863C18.8885 19.8863 17.6147 21.1614 17.6147 22.7274C17.6147 24.2931 18.8885 25.5682 20.4555 25.5682C22.0226 25.5682 23.2964 24.2931 23.2964 22.7274C23.2964 21.1614 22.0226 19.8863 20.4555 19.8863Z" fill="#581C42"/>
<path d="M8.238 13.6364C8.238 15.6761 6.58443 17.3295 4.54468 17.3295C2.50513 17.3295 0.851562 15.6761 0.851562 13.6364C0.851562 11.5966 2.50513 9.94327 4.54468 9.94327C6.58443 9.94327 8.238 11.5966 8.238 13.6364Z" fill="#581C42"/>
<path d="M4.54539 18.1817C2.03871 18.1817 0 16.1432 0 13.6364C0 11.1295 2.03871 9.09097 4.54539 9.09097C7.05227 9.09097 9.09098 11.1295 9.09098 13.6364C9.09098 16.1432 7.05227 18.1817 4.54539 18.1817ZM4.54539 10.7955C2.97838 10.7955 1.70455 12.0704 1.70455 13.6364C1.70455 15.2023 2.97838 16.4772 4.54539 16.4772C6.1126 16.4772 7.38643 15.2023 7.38643 13.6364C7.38643 12.0704 6.1126 10.7955 4.54539 10.7955Z" fill="#581C42"/>
<path d="M7.22929 13.091C6.83374 13.091 6.44964 12.8852 6.24052 12.5171C5.93029 11.9728 6.1213 11.2785 6.66562 10.967L17.2098 4.95572C17.7541 4.6432 18.4485 4.83421 18.7599 5.38061C19.0702 5.92493 18.8792 6.61928 18.3349 6.93077L7.79047 12.942C7.61319 13.0432 7.4201 13.091 7.22929 13.091Z" fill="#581C42"/>
<path d="M17.7712 22.466C17.5802 22.466 17.3871 22.4182 17.2098 22.317L6.66546 16.3058C6.12114 15.9955 5.93034 15.3012 6.24058 14.7556C6.54957 14.2102 7.24495 14.0182 7.79052 14.3307L18.3349 20.342C18.8792 20.6522 19.07 21.3466 18.7598 21.8921C18.5496 22.2602 18.1655 22.466 17.7712 22.466Z" fill="#581C42"/>
</svg>
