<svg width="21" height="26" viewBox="0 0 21 26" fill="none" xmlns="http://www.w3.org/2000/svg">
<path fill-rule="evenodd" clip-rule="evenodd" d="M5.82528 10.0374V6.89466C5.82528 5.32329 7.20677 4.08275 8.84728 4.08275H12.2147C13.8552 4.08275 15.2366 5.32329 15.2366 6.89466V10.0374H19.2084V6.89466C19.2084 3.2557 16.1001 0.361084 12.2147 0.361084H8.84728C4.96186 0.361084 1.85352 3.33841 1.85352 6.89466V10.0374H5.82528Z" fill="#722B59"/>
<path fill-rule="evenodd" clip-rule="evenodd" d="M1.68129 10.9471H19.4679C20.245 10.9471 20.8494 11.5261 20.8494 12.2704V24.5932C20.8494 25.3376 20.245 25.9165 19.4679 25.9165H1.68129C0.904205 25.9165 0.299805 25.3376 0.299805 24.5932V12.2704C0.299805 11.5261 0.904205 10.9471 1.68129 10.9471ZM11.3517 21.9467V18.2251C12.2151 17.8942 12.7332 17.1499 12.7332 16.2402C12.7332 15.0823 11.6971 14.0899 10.4883 14.0899C9.19311 14.0899 8.24334 14.9996 8.24334 16.2402C8.24334 17.1499 8.84774 17.8942 9.62483 18.2251V21.9467C9.62483 22.3602 10.0565 22.7738 10.4883 22.7738C11.0063 22.6911 11.3517 22.3602 11.3517 21.9467Z" fill="#722B59"/>
</svg>
