<svg width="289" height="57" viewBox="0 0 289 57" fill="none" xmlns="http://www.w3.org/2000/svg">
<path d="M110.469 56.5C110.469 53.602 126.208 27.3571 144.984 27.3571C163.761 27.3571 178.5 53.602 178.5 56.5L288.484 56.5V0.500003L0.484362 0.500003V56.5L110.469 56.5Z" fill="#DDDDDD"/>
</svg>
