<svg width="30" height="30" viewBox="0 0 30 30" fill="none" xmlns="http://www.w3.org/2000/svg">
<path d="M29.489 6.88346C25.6201 2.44495 20.4743 0 15 0C9.52567 0 4.3798 2.44495 0.510908 6.88346C-0.170303 7.66514 -0.170303 8.93626 0.510908 9.71794L3.39337 13.0245C4.07218 13.8009 5.27106 13.8009 5.94981 13.0245C6.9155 11.9172 8.01061 11.0057 9.20218 10.3185C9.79919 9.98232 10.185 9.27581 10.1801 8.60867L10.6148 5.02516C13.8036 3.9132 16.2294 3.91391 19.3866 5.02452L19.8163 8.51886C19.8163 9.27459 20.1838 9.96442 20.7845 10.3246C21.9809 11.0151 23.0772 11.9266 24.0429 13.0332C24.3811 13.4228 24.8353 13.6365 25.3211 13.6365C25.8071 13.6365 26.2612 13.4228 26.5994 13.0339L29.4892 9.71807C30.1703 8.9362 30.1703 7.66514 29.489 6.88346Z" fill="#581C42"/>
<path d="M23.1323 12.7135C22.5879 11.6003 21.5307 10.9091 20.3747 10.9091H9.62523C8.46924 10.9091 7.41209 11.6003 6.86764 12.7135L2.86744 20.896C2.62697 21.3887 2.5 21.9434 2.5 22.5001V27.2727C2.5 28.7768 3.62184 30 5.00002 30H25C26.3782 30 27.5 28.7769 27.5 27.2727V22.5C27.5 21.9434 27.373 21.3887 27.1326 20.8953L23.1323 12.7135ZM11.2488 25.9091C10.559 25.9091 9.99877 25.2972 9.99877 24.5455C9.99877 23.7938 10.5591 23.1819 11.2488 23.1819C11.9385 23.1819 12.4987 23.7938 12.4987 24.5455C12.4988 25.2972 11.9385 25.9091 11.2488 25.9091ZM11.2488 21.8182C10.559 21.8182 9.99877 21.2063 9.99877 20.4546C9.99877 19.7029 10.5591 19.091 11.2488 19.091C11.9385 19.091 12.4987 19.7029 12.4987 20.4546C12.4988 21.2063 11.9385 21.8182 11.2488 21.8182ZM11.2488 17.7273C10.559 17.7273 9.99877 17.1154 9.99877 16.3637C9.99877 15.612 10.5591 15.0001 11.2488 15.0001C11.9385 15.0001 12.4987 15.612 12.4987 16.3637C12.4988 17.1154 11.9385 17.7273 11.2488 17.7273ZM15 25.9091C14.3103 25.9091 13.75 25.2972 13.75 24.5455C13.75 23.7938 14.3103 23.1819 15 23.1819C15.6896 23.1819 16.25 23.7938 16.25 24.5455C16.25 25.2972 15.6897 25.9091 15 25.9091ZM15 21.8182C14.3103 21.8182 13.75 21.2063 13.75 20.4546C13.75 19.7029 14.3103 19.091 15 19.091C15.6896 19.091 16.25 19.7029 16.25 20.4546C16.25 21.2063 15.6897 21.8182 15 21.8182ZM15 17.7273C14.3103 17.7273 13.75 17.1154 13.75 16.3637C13.75 15.612 14.3103 15.0001 15 15.0001C15.6896 15.0001 16.25 15.612 16.25 16.3637C16.25 17.1154 15.6897 17.7273 15 17.7273ZM18.7488 25.9091C18.059 25.9091 17.4988 25.2972 17.4988 24.5455C17.4988 23.7938 18.0591 23.1819 18.7488 23.1819C19.4385 23.1819 19.9987 23.7938 19.9987 24.5455C19.9988 25.2972 19.4385 25.9091 18.7488 25.9091ZM18.7488 21.8182C18.059 21.8182 17.4988 21.2063 17.4988 20.4546C17.4988 19.7029 18.0591 19.091 18.7488 19.091C19.4385 19.091 19.9987 19.7029 19.9987 20.4546C19.9988 21.2063 19.4385 21.8182 18.7488 21.8182ZM18.7488 17.7273C18.059 17.7273 17.4988 17.1154 17.4988 16.3637C17.4988 15.612 18.0591 15.0001 18.7488 15.0001C19.4385 15.0001 19.9987 15.612 19.9987 16.3637C19.9988 17.1154 19.4385 17.7273 18.7488 17.7273Z" fill="#581C42"/>
</svg>
