<svg width="24" height="30" viewBox="0 0 24 30" fill="none" xmlns="http://www.w3.org/2000/svg">
<path fill-rule="evenodd" clip-rule="evenodd" d="M9.55484 14.0929C4.37428 15.4988 0.575195 21.4535 0.575195 28.4833C0.575195 28.7314 0.575195 29.0622 0.575195 29.3103H23.197C23.197 29.0622 23.197 28.7314 23.197 28.4833C23.197 21.3708 19.3979 15.4988 14.2174 14.0102C17.153 13.1004 19.2252 10.4539 19.2252 7.39388C19.2252 3.58951 15.8579 0.446777 11.7998 0.446777C7.82799 0.529481 4.46062 3.67222 4.46062 7.47658C4.46062 10.5366 6.61919 13.1831 9.55484 14.0929Z" fill="#722B59"/>
</svg>
