<svg width="31" height="29" viewBox="0 0 31 29" fill="none" xmlns="http://www.w3.org/2000/svg">
<path d="M0 26.6653C0 19.9793 3.61328 14.3159 8.54049 12.9787C5.7484 12.1135 3.6954 9.59638 3.6954 6.686C3.6954 3.0677 6.89809 0.0786588 10.6756 0C14.5353 0 17.7379 2.98904 17.7379 6.60734C17.7379 9.51772 15.7671 12.0348 12.975 12.9001C17.9022 14.3159 19.4259 17.7362 19.9014 19.6384L17.0482 22.9672L16.0971 27.2471L0 27.4519V26.6653Z" fill="#662552"/>
<path d="M27.1467 18.5326C27.0252 18.411 26.8099 18.411 26.6883 18.5326L20.5211 24.705C20.4474 24.7788 20.4138 24.8834 20.4302 24.9864C20.447 25.0894 20.5123 25.1781 20.6053 25.2247L21.1116 25.4782V26.3308L19.5604 26.7747L17.9947 25.2076L18.4382 23.6551H19.29L19.5433 24.1618C19.5899 24.2549 19.6786 24.3202 19.7814 24.337C19.7989 24.3399 19.8163 24.3411 19.8334 24.3411C19.9185 24.3411 20.0015 24.3075 20.0626 24.246L26.2298 18.0737C26.2906 18.0129 26.3248 17.9305 26.3248 17.8443C26.3248 17.7581 26.2906 17.6757 26.2298 17.6149L25.0373 16.4214C24.9765 16.3605 24.8942 16.3263 24.8081 16.3263H24.8074C24.721 16.3266 24.6383 16.3612 24.5779 16.4223L17.9633 23.1021C17.9601 23.1053 17.9603 23.1103 17.9572 23.1136C17.9239 23.1496 17.8962 23.1911 17.8816 23.2415L17.3186 25.213L16.5847 27.7847C16.5524 27.8978 16.5841 28.0198 16.6674 28.1032C16.7291 28.165 16.8117 28.1983 16.8966 28.1983C16.9264 28.1983 16.9561 28.1941 16.9856 28.1859L19.5551 27.4513L21.5249 26.8878C21.5308 26.8861 21.5349 26.8817 21.5407 26.8796C21.5611 26.8726 21.579 26.8611 21.5979 26.85C21.6163 26.839 21.6348 26.8292 21.6504 26.8151C21.6546 26.8114 21.6601 26.8101 21.6642 26.8061L28.3383 20.1859C28.3994 20.1254 28.4339 20.0427 28.4342 19.9562C28.4345 19.87 28.4003 19.7873 28.3392 19.7261L27.1467 18.5326Z" fill="#581C42"/>
<path d="M30.4586 16.247L28.5131 14.3C28.023 13.8094 27.1703 13.8085 26.6782 14.3009L25.4905 15.5004C25.3648 15.6275 25.3651 15.8319 25.4915 15.9584L28.8016 19.2713C28.8649 19.3347 28.9479 19.3664 29.0308 19.3664C29.1135 19.3664 29.1958 19.335 29.2591 19.2723L30.4585 18.0826C30.7036 17.8373 30.8385 17.5115 30.8385 17.1649C30.8385 16.8182 30.7036 16.4923 30.4586 16.247Z" fill="#581C42"/>
</svg>
